<?xml version="1.0" encoding="utf-8"?>
<svg version="1.1" id="logo" xmlns="http://www.w3.org/2000/svg" xmlns:xlink="http://www.w3.org/1999/xlink" x="0px" y="0px"
     width="1007px" height="379px" viewBox="0 0 1007 379" style="enable-background:new 0 0 1007 379;" xml:space="preserve">
<style type="text/css">
	.st0{fill:#D6A926;}
</style>
    <g>
	<g>
		<path class="st0" d="M1003,297c-0.925,2.855-2.342,5.652-2.684,8.575c-1.048,8.977-5.75,16.473-9.1,24.553
			c-4.377,10.557-11.392,19.03-19.701,26.436c-14.049,12.524-30.378,20.825-49.127,23.402c-8.343,1.147-16.929,1.547-25.321,1.002
			c-7.417-0.481-14.736-2.665-22.067-4.241c-7.515-1.615-21.316-8.594-28.241-13.323c-7.138-4.874-13.334-10.771-18.989-17.133
			c-10.212-11.487-16.15-25.247-19.76-40.104c-2.386-9.819-2.705-19.85-1.802-29.721c1.701-18.577,7.771-35.818,19.256-50.751
			c12.723-16.544,29.265-27.557,49.257-33.739c13.785-4.262,27.866-5.078,41.891-3.573c22.96,2.464,42.949,11.903,59.169,28.687
			c14.594,15.101,23.433,33.02,26.375,53.836c0.056,0.396,0.553,0.731,0.844,1.094C1003,280.333,1003,288.667,1003,297z
			 M933.968,237.478c-2.17-0.423-3.816-0.341-4.998-1.043c-5.363-3.183-11.088-5.04-17.264-5.882
			c-14.817-2.022-27.985,1.524-39.319,11.337c-12.61,10.918-19.423,28.861-18.283,46.201c0.752,11.431,4.186,22.126,11.145,31.416
			c11.987,16.002,28.366,21.927,47.687,19.335c12.058-1.618,22.045-7.68,29.618-17.523c10.015-13.019,14.198-27.783,12.192-43.877
			C952.779,261.671,945.106,248.458,933.968,237.478z"/>
        <path class="st0" d="M3,277c2.064-2.622,1.307-5.908,1.928-8.847c8.399-39.775,31.306-66.391,70.871-77.213
			c20.124-5.504,40.621-4.705,60.239,2.517c21.613,7.956,38.591,22.024,50.333,42.127c3.962,6.783,6.966,13.914,9.093,21.444
			c0.311,1.1,0.454,2.247,0.757,3.792c-1.506,0.132-2.767,0.336-4.029,0.339c-10.499,0.021-20.998-0.038-31.497,0.021
			c-3.773,0.021-7.597-0.522-11.29,0.927c-0.854,0.335-1.952,0.049-2.636,0.049c-2.892-4.72-5.268-9.304-8.293-13.41
			c-13.902-18.875-37.911-23.538-57.865-14.188c-5.372,2.517-10.694,5.226-14.414,9.978c-3.093,3.951-6.271,8.027-8.371,12.532
			c-9.08,19.476-8.291,38.872,2.061,57.642c7.111,12.894,18.01,21.475,32.631,23.905c14.724,2.448,28.422-0.448,39.777-11.079
			c5.161-4.832,9.339-10.342,12.502-16.648c0.441-0.879,0.965-1.715,1.468-2.603c16.535,0,32.974,0,49.918,0
			c-0.367,1.866-0.539,3.465-1,4.975c-7.413,24.309-22.099,42.932-44.088,55.634c-12.509,7.226-25.969,11.64-40.542,12.219
			c-0.53,0.021-1.038,0.578-1.556,0.886c-0.333,0-0.667,0-1,0c-4,0-8,0-12,0c-0.667,0-1.333,0-2,0
			c-1.4-0.658-2.767-1.797-4.205-1.894c-8.288-0.56-16.183-2.665-23.895-5.594c-4.054-1.54-8.327-2.711-12.073-4.812
			c-9.88-5.541-18.67-12.462-26.143-21.136C14.084,332.774,6.472,314.52,4.01,293.959C3.928,293.276,3.348,292.652,3,292
			C3,287,3,282,3,277z"/>
        <path class="st0" d="M445,382c-1.93-0.649-3.817-1.652-5.796-1.889c-11.071-1.324-21.512-4.356-30.707-10.879
			c-11.266-7.991-17.533-19.222-20.433-32.451c-1.449-6.611-2.568-13.317-1.682-20.437c15.822,0,31.543,0,47.497,0
			c-0.259,1.931-0.615,3.65-0.699,5.382c-0.297,6.119,1.788,10.822,7.111,14.502c4.256,2.942,8.39,4.852,13.646,5.127
			c10.568,0.553,21.929-13.49,15.309-24.357c-0.332-0.546-0.435-1.231-0.579-1.658c-6.698-5.72-14.539-8.82-22.311-12.025
			c-6.813-2.809-13.893-5.064-20.459-8.355c-8.071-4.045-16.162-8.112-22.603-14.896c-11.85-12.48-16.169-26.968-13.432-43.874
			c3.27-20.197,15.259-33.401,33.249-41.621c20.953-9.575,42.324-9.394,63.129-0.041c16.248,7.304,26.38,20.302,29.777,38.069
			c0.62,3.241,0.799,6.571,1.091,9.868c0.052,0.59-0.335,1.22-0.616,2.148c-1.316,0.138-2.588,0.383-3.861,0.387
			c-9.33,0.033-18.661-0.028-27.99,0.04c-3.769,0.028-7.592-0.535-11.279,0.936c-0.845,0.337-1.939,0.05-3.017,0.05
			c-0.489-1.855-0.929-3.423-1.314-5.005c-2.849-11.7-14.208-16.649-24.82-10.75c-4.922,2.736-7.409,6.876-7.286,12.647
			c0.101,4.692,2.762,8.055,6.355,9.866c12.115,6.105,24.614,11.446,36.754,17.506c6.488,3.239,12.949,6.551,18.544,11.506
			c3.557,3.15,7.461,5.836,10.592,9.555c6.012,7.141,8.843,15.552,9.612,24.53c0.942,10.999-0.282,21.855-4.633,32.208
			c-1.866,4.441-4.057,8.577-7.558,11.982c-1.384,1.346-2.408,3.062-3.13,4.001c-8.47,7.157-17.5,11.974-29.247,15.026
			c-3.073,0.051-7.877,0.366-12.217,2.9c-0.667,0-1.333,0-2,0c-4,0-8,0-12,0C447,382,446,382,445,382z"/>
        <path class="st0" d="M368,3c0.831,0.35,1.631,0.849,2.498,1.027c10.915,2.252,19.861,7.399,25.428,17.404
			c2.734,4.914,4.188,10.291,5.221,15.796c1.483,7.902,1.544,15.92,0.641,23.796c-1.082,9.431-4.769,18.106-10.205,25.981
			c-4.463,6.464-10.576,11.36-15.921,16.985c-5.256,5.532-10.626,10.956-15.822,16.542c-5.532,5.947-8.659,13.118-10.363,21.267
			c8.535-1.269,16.806-2.98,25.158-3.604c8.252-0.617,16.585-0.135,25.214-0.135c0,9.748,0,19.134,0,28.771
			c-27.482,0-54.89,0-82.82,0c0-5.29,0.158-10.408-0.028-15.513c-0.669-18.289,5.901-34.126,16.736-48.319
			c4.925-6.451,10.711-12.252,16.212-18.251c4.267-4.653,8.717-9.107,11.387-15.001c1.744-3.85,2.812-7.752,2.714-11.995
			c-0.092-3.997,0.067-8.001-0.059-11.997c-0.29-9.193-5.393-12.821-12.978-13.157c-8.524-0.377-16.445,1.658-24.184,4.881
			c-1.365,0.569-2.745,1.102-4.754,1.906c-2.232-8.701-3.207-17.301-5.17-25.883c7.737-4.541,15.726-7.528,24.166-9.413
			C341.761,3.936,342.36,3.373,343,3C351.333,3,359.667,3,368,3z"/>
        <path class="st0" d="M623.22,191.29c13.858,0,27.162,0,40.989,0c23.33,37.029,46.751,74.202,70.781,112.342
			c0.704-38.022-1.138-74.95-0.671-112.176c15.348,0,30.417,0,45.459,0c1.06,3.508,1.386,180.003,0.338,186.385
			c-13.744,0-27.523,0-41.644,0c-11.554-18.21-23.19-36.559-34.835-54.903c-11.625-18.311-23.26-36.616-35.687-54.63
			c0,36.196,0,72.391,0,108.916c-3.886,1.531-7.727,0.625-11.441,0.787c-3.658,0.16-7.329,0.035-10.994,0.035
			c-3.832,0-7.666,0.085-11.495-0.025c-3.5-0.1-6.994-0.41-10.799-0.646C623.22,315.745,623.22,253.702,623.22,191.29z"/>
        <path class="st0" d="M264.952,191.328c14.028,0,27.648,0,41.236,0c23.786,61.651,47.511,123.143,71.473,185.25
			c-1.719,0.588-2.996,1.399-4.276,1.406c-15.823,0.087-31.646,0.057-47.822,0.057c-2.974-8.954-5.924-17.836-8.9-26.796
			c-21.697,0-43.168,0-65.111,0c-2.828,8.738-5.728,17.701-8.615,26.623c-17.305,0-34.263,0-51.853,0
			C215.759,315.554,240.278,253.636,264.952,191.328z M304.318,312.849c-6.916-21.31-13.639-42.023-20.361-62.736
			c-0.257,0.061-0.514,0.122-0.771,0.183c-6.423,20.735-12.845,41.469-19.376,62.553
			C277.448,312.849,290.522,312.849,304.318,312.849z"/>
        <path class="st0" d="M541.352,6.281c12.315,0,24.25,0,36.265,0c1.762,25.573-0.294,50.68-5.421,75.568
			c0.782,0.082,0.953,0.131,1.112,0.107c0.151-0.023,0.297-0.111,0.432-0.193c0.14-0.086,0.286-0.181,0.389-0.306
			c0.213-0.255,0.429-0.516,0.59-0.805c0.323-0.579,0.613-1.177,0.912-1.769c12.208-24.14,24.415-48.28,36.708-72.589
			c11.999,0,23.953,0,36.662,0c-14.417,25.767-29.628,50.731-44.182,76.438c4.676,4.217,9.324,8.24,13.755,12.49
			c1.633,1.566,3.164,3.492,4.043,5.552c8.971,21.026,17.8,42.112,26.661,63.185c0.311,0.739,0.537,1.514,0.809,2.29
			c-3.763,0.976-32.852,1.199-39.441,0.342c-8.464-21.093-16.951-42.243-25.794-64.282c-2.353,4.857-4.386,8.744-6.104,12.765
			c-0.619,1.448-0.652,3.22-0.658,4.845c-0.048,13.831-0.027,27.661-0.027,41.492c0,1.652,0,3.303,0,5.293
			c-12.255,0-24.319,0-36.71,0C541.352,113.38,541.352,59.998,541.352,6.281z"/>
        <path class="st0" d="M459.536,6.239c14.972,0,29.764,0,45.254,0c0.099,33.301,0.008,66.556,0.055,99.928
			c0.853,0.914,1.747,1.872,2.429,2.603c4.334,0.899,8.672-0.955,12.529,1.693c0,7.687,0,15.303,0,23.383c-4.808,0-9.552,0-14.799,0
			c0,11.159,0,21.876,0,32.891c-12.083,0-23.661,0-35.777,0c0-10.719,0-21.444,0-32.637c-18.94,0-37.351,0-56.233,0
			c0-7.737-0.14-15.012,0.096-22.276c0.061-1.877,1.209-3.756,2.012-5.565c13.724-30.911,27.473-61.811,41.215-92.715
			C457.385,11.14,458.439,8.729,459.536,6.239z M472.201,31.744c-7.69,26.047-17.002,51.249-28.596,75.798
			c6.915,0.897,21.979,0.7,25.524-0.269c0-3.954-0.016-7.947,0.004-11.941c0.031-6.496-0.122-13.002,0.178-19.487
			c0.43-9.27,1.201-18.525,1.82-27.786C471.495,42.621,471.845,37.182,472.201,31.744z"/>
        <path class="st0" d="M588.963,377.848c-15.784,0-31.216,0-46.97,0c0-61.353,0-122.511,0-183.983c15.623,0,31.043,0,46.503,0
			C589.48,197.722,589.956,361.091,588.963,377.848z"/>
	</g>
</g>
</svg>
